{
  "$schema": "http://json-schema.org/draft-04/schema#",
  "type": "object",
  "properties": {
    "response": {
      "type": "object",
      "additionalProperties": false,
      "properties": {
        "id": {
          "type": "integer"
        },
        "iaas_configuration_id": {
          "type": "integer"
        },
        "created_at": {
          "type": "string"
        },
        "updated_at": {
          "type": "string"
        },
        "state": {
          "type": "string"
        },
        "error_message": {
          "type": ["string", "null"]
        }
      },
      "required": [
        "id",
        "iaas_configuration_id",
        "created_at",
        "updated_at",
        "state",
        "error_message"
      ]
    }
  },
  "required": [
    "response"
  ]
}
