{
  "$schema": "http://json-schema.org/draft-04/schema#",
  "type": "object",
  "properties": {
    "response": {
      "type": "object",
      "additionalProperties": false,
      "properties": {
        "id": {
          "type": "integer"
        },
        "uid": {
          "type": "string"
        },
        "slug": {
          "type": "string"
        },
        "token": {
          "type": "string"
        },
        "machine_count": {
          "type": "integer"
        },
        "configuration": {
          "type": "object",
          "properties": {
            "id": {
              "type": "integer"
            },
            "auto_approve_docker_relays": {
              "type": "boolean"
            },
            "use_relay_ssh_key": {
              "type": "boolean"
            },
            "organization_id": {
              "type": "integer"
            }
          },
          "required": [
            "id",
            "auto_approve_docker_relays",
            "use_relay_ssh_key",
            "organization_id"
          ]
        }
      },
      "required": [
        "id",
        "uid",
        "slug",
        "token",
        "machine_count",
        "configuration"
      ]
    }
  },
  "required": [
    "response"
  ]
}
