{
  "$schema": "http://json-schema.org/draft-04/schema#",
  "type": "object",
  "properties": {
    "response": {
      "type": "object",
      "additionalProperties": false,
      "properties": {
        "id": {
          "type": "integer"
        },
        "requirement_id": {
          "type": "integer"
        },
        "security_container_id": {
          "type": "integer"
        },
        "security_container": {
          "type": "object"
        }
      },
      "required": [
        "id",
        "requirement_id",
        "security_container_id",
        "security_container"
      ]
    }
  },
  "required": [
    "response"
  ]
}
